chess_proj_final
…
Rows: 20058 Columns: 17
── Column specification ────────────────────────────────────────────────────────
Delimiter: ","
chr (11): victory_status, winner, time_increment, white_id, black_id, moves,...
dbl  (5): game_id, turns, white_rating, black_rating, opening_moves
lgl  (1): rated

ℹ Use `spec()` to retrieve the full column specification for this data.
ℹ Specify the column types or set `show_col_types = FALSE` to quiet this message.

To clean the data, I ensured that I would only analyze ranked games instead of casual and ranked games. Afterwards, I filtered the games based on opening and then mutated the variables to ensure that all the openings that include the text would be seen. This was to ensure that games with variations attached, like “Nimzo-Larsen Attack ___ Variation” would still be included under the Nimzo-Larsen Attack umbrella. I then summarized the variables I wanted into new data frames to analyze the research questions.

# A tibble: 365 × 2
   opening_code     n
   <chr>        <int>
 1 A00           1007
 2 A01            164
 3 A02             82
 4 A03             78
 5 A04            285
 6 A05             16
 7 A06            125
 8 A07             33
 9 A08             39
10 A09             17
# ℹ 355 more rows
…
